
   __                             _ __                  __    __
  / /_____  _____      ___  _  __(_) /_      ____ _____/ /___/ /_______  _____________  _____
 / __/ __ \/ ___/_____/ _ \| |/_/ / __/_____/ __ `/ __  / __  / ___/ _ \/ ___/ ___/ _ \/ ___/
/ /_/ /_/ / /  /_____/  __/>  </ / /_/_____/ /_/ / /_/ / /_/ / /  /  __(__  |__  )  __(__  )
\__/\____/_/         \___/_/|_/_/\__/      \__,_/\__,_/\__,_/_/   \___/____/____/\___/____/
